…
  return(sim_data)
}

sim_5000 = sim_t_test(n = 30, mu = 0, sd = 5, num_sim = 5000) |> 
  select(estimate, p.value)

sim_5000
```

    ## # A tibble: 5,000 × 2
    ##    estimate p.value
    ##       <dbl>   <dbl>
    ##  1    0.287 0.758  
    ##  2   -0.217 0.797  
    ##  3    2.25  0.00552
    ##  4   -0.950 0.279  
    ##  5   -0.246 0.792  
    ##  6    0.289 0.768  
    ##  7    0.674 0.445  
    ##  8   -0.664 0.422  
    ##  9    0.114 0.916  
    ## 10   -0.606 0.394  
    ## # ℹ 4,990 more rows
…
